{
  "project_info": {
    "project_number": "329509531493",
    "project_id": "dirty-sex-game-for-couples",
    "storage_bucket": "dirty-sex-game-for-couples.appspot.com"
  },
  "client": [
    {
      "client_info": {
        "mobilesdk_app_id": "1:329509531493:android:0146758ce0e425cea9fb8c",
        "android_client_info": {
          "package_name": "game.for.couples.appname"
        }
      },
      "oauth_client": [
        {
          "client_id": "329509531493-ss58j70eae1nrb92lrgir1o5rqh44fv8.apps.googleusercontent.com",
          "client_type": 3
        }
      ],
      "api_key": [
        {
          "current_key": "AIzaSyDf3DlkA3bykOKKG54ll7B_rXDNebqi7sg"
        }
      ],
      "services": {
        "appinvite_service": {
          "other_platform_oauth_client": [
            {
              "client_id": "329509531493-ss58j70eae1nrb92lrgir1o5rqh44fv8.apps.googleusercontent.com",
              "client_type": 3
            },
            {
              "client_id": "329509531493-mnj4mh0r9auv4mmuecu6tvngs4d3dmlo.apps.googleusercontent.com",
              "client_type": 2,
              "ios_info": {
                "bundle_id": "game.for.couples.appname",
                "app_store_id": "1640674108"
              }
            }
          ]
        }
      }
    }
  ],
  "configuration_version": "1"
}